{
  "info": {
    "count": 10,
    "pages": 2,
    "next": "http://localhost:3000/data/category-games.json?page=2",
    "prev": null
  },
  "results": [
    {
      "category_id": 1,
      "category_name": "math",
      "category_img": "https://www.google.com/images/branding/googlelogo/2x/googlelogo_color_272x92dp.png",
      "category_description": "Matematicas",
      "status": true,
      "created_at": "2023-01-01T00:00:00.000Z",
      "updated_at": "2023-01-01T00:00:00.000Z"
    },
    {
      "category_id": 2,
      "category_name": "puzzles",
      "category_img": "https://www.google.com/images/branding/googlelogo/2x/googlelogo_color_272x92dp.png",
      "category_description": "puzzles",
      "status": true,
      "created_at": "2023-01-01T00:00:00.000Z",
      "updated_at": "2023-01-01T00:00:00.000Z"
    }
  ]
}
