{
  "info": {
    "count": 10,
    "pages": 2,
    "next": "http://localhost:3000/data/games.json?page=2",
    "prev": null
  },
  "results": [
    {
      "game_id": 1,
      "game_name": "do not make",
      "game_img": "https://www.google.com/images/branding/googlelogo/2x/googlelogo_color_272x92dp.png",
      "game_url": "/play/marketplace/doNotMake",
      "game_description": "do not make",
      "create_at": "2023-01-01T00:00:00.000Z",
      "update_at": "2023-01-01T00:00:00.000Z"
    },
    {
      "game_id": 2,
      "game_name": "golfrog",
      "game_img": "https://www.google.com/images/branding/googlelogo/2x/googlelogo_color_272x92dp.png",
      "game_url": "/play/marketplace/golfrog",
      "game_description": "golfrog",
      "create_at": "2023-01-01T00:00:00.000Z",
      "update_at": "2023-01-01T00:00:00.000Z"
    },
    {
      "game_id": 3,
      "game_name": "lost city",
      "game_img": "https://www.google.com/images/branding/googlelogo/2x/googlelogo_color_272x92dp.png",
      "game_url": "/play/marketplace/lostCity",
      "game_description": "lost city",
      "create_at": "2023-01-01T00:00:00.000Z",
      "update_at": "2023-01-01T00:00:00.000Z"
    },
    {
      "game_id": 4,
      "game_name": "puzle",
      "game_img": "https://www.google.com/images/branding/googlelogo/2x/googlelogo_color_272x92dp.png",
      "game_url": "/play/marketplace/puzle",
      "game_description": "puzle",
      "create_at": "2023-01-01T00:00:00.000Z",
      "update_at": "2023-01-01T00:00:00.000Z"
    }
  ]
}
