{
  "info": {
    "count": 10,
    "pages": 2,
    "next": "http://localhost:3000/data/games.json?page=2",
    "prev": null
  },
  "results": [
    {
      "transfer_id": 1,
      "user_id": 1,
      "transfer_img": "https://example.com/uploads/transfer_1.png",
      "transfer_amount": 500,
      "transfer_state": 1,
      "create_at": "2025-06-28T10:00:00Z",
      "update_at": "2025-06-28T10:05:00Z"
    },
    {
      "transfer_id": 2,
      "user_id": 1,
      "transfer_img": "https://example.com/uploads/transfer_2.png",
      "transfer_amount": 1200,
      "transfer_state": 0,
      "create_at": "2025-06-27T14:22:00Z",
      "update_at": "2025-06-27T14:22:00Z"
    },
    {
      "transfer_id": 3,
      "user_id": 1,
      "transfer_img": "https://example.com/uploads/transfer_3.png",
      "transfer_amount": 350,
      "transfer_state": -1,
      "create_at": "2025-06-25T08:45:00Z",
      "update_at": "2025-06-25T09:00:00Z"
    }
  ]
}
